---
http_interactions:
- request:
    method: get
    uri: https://api.kinopoisk.dev/v1.4/studio
    body:
      encoding: US-ASCII
      string: ''
    headers:
      X-API-KEY:
      - "<X_API_KEY>"
      User-Agent:
      - Faraday v2.12.2
  response:
    status:
      code: 200
      message: OK
    headers:
      server:
      - nginx/1.20.1
      date:
      - Sun, 06 Apr 2025 20:15:14 GMT
      content-type:
      - application/json; charset=utf-8
      transfer-encoding:
      - chunked
      connection:
      - keep-alive
      content-security-policy:
      - 'default-src ''self'';base-uri ''self'';font-src ''self'' https: data:;form-action
        ''self'';frame-ancestors ''self'';img-src ''self'' data:;object-src ''none'';script-src
        ''self'';script-src-attr ''none'';style-src ''self'' https: ''unsafe-inline'';upgrade-insecure-requests'
      cross-origin-opener-policy:
      - same-origin
      cross-origin-resource-policy:
      - same-origin
      origin-agent-cluster:
      - "?1"
      referrer-policy:
      - no-referrer
      strict-transport-security:
      - max-age=15552000; includeSubDomains
      x-content-type-options:
      - nosniff
      x-dns-prefetch-control:
      - 'off'
      x-download-options:
      - noopen
      x-frame-options:
      - SAMEORIGIN
      x-permitted-cross-domain-policies:
      - none
      x-xss-protection:
      - '0'
      access-control-allow-origin:
      - "*"
      x-ratelimit-limit:
      - '5'
      x-ratelimit-remaining:
      - '4'
      x-ratelimit-reset:
      - '1'
      vary:
      - accept-encoding
      content-encoding:
      - gzip
    body:
      encoding: UTF-8
      string: '{"docs":[{"id":"693379","subType":"studio","title":"ИП Силка Александр
        Владимирович","type":"Производство","movies":[{"id":7427094}],"createdAt":"2025-04-04T15:58:47.491Z","updatedAt":"2025-04-04T15:58:47.491Z"},{"id":"693284","subType":"studio","title":"Wake
        Me","type":"Производство","movies":[{"id":1438450}],"createdAt":"2025-04-04T15:58:42.603Z","updatedAt":"2025-04-04T15:58:42.603Z"},{"id":"693553","subType":"studio","title":"Vista
        Film Sales","type":"Производство","movies":[{"id":6688934}],"createdAt":"2025-04-04T15:56:51.607Z","updatedAt":"2025-04-04T15:56:51.607Z"},{"id":"693464","subType":"studio","title":"LyO
        Media","type":"Производство","movies":[{"id":7477933}],"createdAt":"2025-04-04T15:56:22.352Z","updatedAt":"2025-04-04T15:56:22.352Z"},{"id":"693463","subType":"studio","title":"Guerreras
        Maxwell","type":"Производство","movies":[{"id":7477933}],"createdAt":"2025-04-04T15:56:22.168Z","updatedAt":"2025-04-04T15:56:22.168Z"},{"id":"693453","subType":"studio","title":"Las
        chicas de la estaci?n","type":"Производство","movies":[{"id":7471827}],"createdAt":"2025-04-04T15:56:04.406Z","updatedAt":"2025-04-04T15:56:04.406Z"},{"id":"693119","subType":"studio","title":"Huniche
        Pictures","type":"Производство","movies":[{"id":7344192}],"createdAt":"2025-04-04T15:55:59.278Z","updatedAt":"2025-04-04T15:55:59.278Z"},{"id":"657930","subType":"studio","title":"OSH
        Media","type":"Производство","movies":[{"id":4367143}],"createdAt":"2025-04-04T15:55:57.487Z","updatedAt":"2025-04-04T15:55:57.487Z"},{"id":"693202","subType":"studio","title":"TVN
        Warner Bros. Discovery","type":"Производство","movies":[{"id":7369624}],"createdAt":"2025-04-04T15:55:57.178Z","updatedAt":"2025-04-04T15:55:57.178Z"},{"id":"693117","subType":"studio","title":"Cubes
        Entertainments","type":"Производство","movies":[{"id":7341930}],"createdAt":"2025-04-04T15:54:41.865Z","updatedAt":"2025-04-04T15:54:41.865Z"}],"total":194469,"limit":10,"page":1,"pages":19447}'
  recorded_at: Sun, 06 Apr 2025 20:15:15 GMT
recorded_with: VCR 6.3.1
