---
http_interactions:
- request:
    method: get
    uri: https://api.kinopoisk.dev/v1.4/movie/awards
    body:
      encoding: US-ASCII
      string: ''
    headers:
      X-API-KEY:
      - "<X_API_KEY>"
      User-Agent:
      - Faraday v2.12.2
  response:
    status:
      code: 200
      message: OK
    headers:
      server:
      - nginx/1.20.1
      date:
      - Sun, 06 Apr 2025 19:02:07 GMT
      content-type:
      - application/json; charset=utf-8
      transfer-encoding:
      - chunked
      connection:
      - keep-alive
      content-security-policy:
      - 'default-src ''self'';base-uri ''self'';font-src ''self'' https: data:;form-action
        ''self'';frame-ancestors ''self'';img-src ''self'' data:;object-src ''none'';script-src
        ''self'';script-src-attr ''none'';style-src ''self'' https: ''unsafe-inline'';upgrade-insecure-requests'
      cross-origin-opener-policy:
      - same-origin
      cross-origin-resource-policy:
      - same-origin
      origin-agent-cluster:
      - "?1"
      referrer-policy:
      - no-referrer
      strict-transport-security:
      - max-age=15552000; includeSubDomains
      x-content-type-options:
      - nosniff
      x-dns-prefetch-control:
      - 'off'
      x-download-options:
      - noopen
      x-frame-options:
      - SAMEORIGIN
      x-permitted-cross-domain-policies:
      - none
      x-xss-protection:
      - '0'
      access-control-allow-origin:
      - "*"
      x-ratelimit-limit:
      - '5'
      x-ratelimit-remaining:
      - '4'
      x-ratelimit-reset:
      - '1'
      vary:
      - accept-encoding
      content-encoding:
      - gzip
    body:
      encoding: UTF-8
      string: '{"docs":[{"nomination":{"award":{"title":"Оскар","year":2024},"title":"Лучший
        грим и прически"},"winning":false,"movieId":4664634,"createdAt":"2024-03-31T02:48:53.006Z","updatedAt":"2024-03-31T02:48:53.006Z","id":"6608cf153bb63c827e2c35d6"},{"nomination":{"award":{"title":"Оскар","year":2024},"title":"Лучший
        монтаж"},"winning":true,"movieId":4664634,"createdAt":"2024-03-31T02:48:53.000Z","updatedAt":"2024-03-31T02:48:53.000Z","id":"6608cf153bb63c827e2c35d4"},{"nomination":{"award":{"title":"Оскар","year":2024},"title":"Лучший
        звук"},"winning":false,"movieId":4664634,"createdAt":"2024-03-31T02:48:52.997Z","updatedAt":"2024-03-31T02:48:52.997Z","id":"6608cf143bb63c827e2c35d2"},{"nomination":{"award":{"title":"Оскар","year":2024},"title":"Лучшие
        костюмы"},"winning":false,"movieId":4664634,"createdAt":"2024-03-31T02:48:52.994Z","updatedAt":"2024-03-31T02:48:52.994Z","id":"6608cf143bb63c827e2c35d0"},{"nomination":{"award":{"title":"Оскар","year":2024},"title":"Лучшая
        работа художника-постановщика"},"winning":false,"movieId":4664634,"createdAt":"2024-03-31T02:48:52.989Z","updatedAt":"2024-03-31T02:48:52.989Z","id":"6608cf143bb63c827e2c35ce"},{"nomination":{"award":{"title":"Оскар","year":2024},"title":"Лучшая
        работа оператора"},"winning":true,"movieId":4664634,"createdAt":"2024-03-31T02:48:52.934Z","updatedAt":"2024-03-31T02:48:52.934Z","id":"6608cf143bb63c827e2c35cc"},{"nomination":{"award":{"title":"Оскар","year":2024},"title":"Лучший
        адаптированный сценарий"},"winning":false,"movieId":4664634,"createdAt":"2024-03-31T02:48:52.931Z","updatedAt":"2024-03-31T02:48:52.931Z","id":"6608cf143bb63c827e2c35ca"},{"nomination":{"award":{"title":"Оскар","year":2024},"title":"Лучшая
        мужская роль"},"winning":true,"movieId":4664634,"createdAt":"2024-03-31T02:48:52.928Z","updatedAt":"2024-03-31T02:48:52.928Z","id":"6608cf143bb63c827e2c35c8"},{"nomination":{"award":{"title":"Оскар","year":2024},"title":"Лучший
        фильм"},"winning":true,"movieId":4664634,"createdAt":"2024-03-31T02:48:52.912Z","updatedAt":"2024-03-31T02:48:52.912Z","id":"6608cf143bb63c827e2c35c6"},{"nomination":{"award":{"title":"Золотая
        малина","year":2024},"title":"Худшая экранная пара"},"winning":false,"movieId":4309488,"createdAt":"2024-03-30T22:58:56.132Z","updatedAt":"2024-03-30T22:58:56.132Z","id":"660899303bb63c827e2a6a8b"}],"total":28097,"limit":10,"page":1,"pages":2810}'
  recorded_at: Sun, 06 Apr 2025 19:02:08 GMT
recorded_with: VCR 6.3.1
