---
http_interactions:
- request:
    method: get
    uri: https://api.kinopoisk.dev/v1.4/season
    body:
      encoding: US-ASCII
      string: ''
    headers:
      X-API-KEY:
      - "<X_API_KEY>"
      User-Agent:
      - Faraday v2.12.2
  response:
    status:
      code: 200
      message: OK
    headers:
      server:
      - nginx/1.20.1
      date:
      - Sun, 06 Apr 2025 19:27:17 GMT
      content-type:
      - application/json; charset=utf-8
      transfer-encoding:
      - chunked
      connection:
      - keep-alive
      content-security-policy:
      - 'default-src ''self'';base-uri ''self'';font-src ''self'' https: data:;form-action
        ''self'';frame-ancestors ''self'';img-src ''self'' data:;object-src ''none'';script-src
        ''self'';script-src-attr ''none'';style-src ''self'' https: ''unsafe-inline'';upgrade-insecure-requests'
      cross-origin-opener-policy:
      - same-origin
      cross-origin-resource-policy:
      - same-origin
      origin-agent-cluster:
      - "?1"
      referrer-policy:
      - no-referrer
      strict-transport-security:
      - max-age=15552000; includeSubDomains
      x-content-type-options:
      - nosniff
      x-dns-prefetch-control:
      - 'off'
      x-download-options:
      - noopen
      x-frame-options:
      - SAMEORIGIN
      x-permitted-cross-domain-policies:
      - none
      x-xss-protection:
      - '0'
      access-control-allow-origin:
      - "*"
      x-ratelimit-limit:
      - '5'
      x-ratelimit-remaining:
      - '4'
      x-ratelimit-reset:
      - '1'
      vary:
      - accept-encoding
      content-encoding:
      - gzip
    body:
      encoding: UTF-8
      string: '{"docs":[{"movieId":5354436,"poster":{"url":"https://image.openmoviedb.com/tmdb-images/original/trDyXxIjKvrDGUI0rH7cdZm9FyG.jpg","previewUrl":"https://image.openmoviedb.com/tmdb-images/w500/trDyXxIjKvrDGUI0rH7cdZm9FyG.jpg"},"number":0,"name":"Спецматериалы","enName":"Specials","episodesCount":1,"airDate":"2016-10-05T00:00:00.000Z","episodes":[{"number":1,"name":"Эпизод
        1","enName":"Episode 1","airDate":"2016-10-05T00:00:00.000Z","description":"","enDescription":"","still":{"url":"https://image.openmoviedb.com/tmdb-images/original/r0ly3ir358zmSJ5oAqJoF51UznT.jpg","previewUrl":"https://image.openmoviedb.com/tmdb-images/w500/r0ly3ir358zmSJ5oAqJoF51UznT.jpg"}}],"source":"tmdb","updatedAt":"2025-04-05T01:10:53.510Z","createdAt":"2025-04-05T01:10:52.887Z","id":"67f0831dcef6cd7449d55270"},{"movieId":626612,"number":0,"name":"Спецматериалы","enName":"Specials","episodesCount":1,"airDate":"1989-12-29T00:00:00.000Z","episodes":[{"number":1,"name":"Эпизод
        1","enName":"Special: A Tale of Two Toads","airDate":"1989-12-29T00:00:00.000Z","description":"","enDescription":"The
        weasels kidnap Mr Toad and try to install doppelganger in Toad hall.","still":{"url":null,"previewUrl":null}}],"source":"tmdb","updatedAt":"2025-04-05T01:09:31.490Z","createdAt":"2025-04-05T01:09:30.877Z","id":"67f082cbcef6cd7449d544ec"},{"movieId":455433,"poster":{"url":"https://image.openmoviedb.com/tmdb-images/original/jQa1A9o9Z11tJORsFcr2wCDN0Ku.jpg","previewUrl":"https://image.openmoviedb.com/tmdb-images/w500/jQa1A9o9Z11tJORsFcr2wCDN0Ku.jpg"},"number":0,"name":"Спецматериалы","enName":"Specials","episodesCount":16,"airDate":"2009-07-01T00:00:00.000Z","episodes":[{"number":1,"name":"Эпизод
        1","enName":"Mini Sengoku Basara 1","airDate":"2009-07-01T00:00:00.000Z","description":"","enDescription":"","still":{"url":"https://image.openmoviedb.com/tmdb-images/original/zbnKml6VJPGIwgCsgjl83FEuqXa.jpg","previewUrl":"https://image.openmoviedb.com/tmdb-images/w500/zbnKml6VJPGIwgCsgjl83FEuqXa.jpg"}},{"number":2,"name":"Эпизод
        2","enName":"Mini Sengoku Basara 2","airDate":"2009-08-05T00:00:00.000Z","description":"","enDescription":"","still":{"url":"https://image.openmoviedb.com/tmdb-images/original/1oVhO9i75ZCAadrqNKO97p4TOjK.jpg","previewUrl":"https://image.openmoviedb.com/tmdb-images/w500/1oVhO9i75ZCAadrqNKO97p4TOjK.jpg"}},{"number":3,"name":"Эпизод
        3","enName":"Mini Sengoku Basara 3","airDate":"2009-09-02T00:00:00.000Z","description":"","enDescription":"","still":{"url":"https://image.openmoviedb.com/tmdb-images/original/mxd889YeBmANEpCnPghu1Gx8wOG.jpg","previewUrl":"https://image.openmoviedb.com/tmdb-images/w500/mxd889YeBmANEpCnPghu1Gx8wOG.jpg"}},{"number":4,"name":"Эпизод
        4","enName":"Mini Sengoku Basara 4","airDate":"2009-10-07T00:00:00.000Z","description":"","enDescription":"","still":{"url":"https://image.openmoviedb.com/tmdb-images/original/khDOtZTvqSwtqlQudXjeEp8uhAH.jpg","previewUrl":"https://image.openmoviedb.com/tmdb-images/w500/khDOtZTvqSwtqlQudXjeEp8uhAH.jpg"}},{"number":5,"name":"Эпизод
        5","enName":"Mini Sengoku Basara 5","airDate":"2009-11-04T00:00:00.000Z","description":"","enDescription":"","still":{"url":"https://image.openmoviedb.com/tmdb-images/original/pJiswQCDnZoS2hEc3Zu56OYOxrS.jpg","previewUrl":"https://image.openmoviedb.com/tmdb-images/w500/pJiswQCDnZoS2hEc3Zu56OYOxrS.jpg"}},{"number":6,"name":"Эпизод
        6","enName":"Mini Sengoku Basara 6","airDate":"2009-12-03T00:00:00.000Z","description":"","enDescription":"","still":{"url":"https://image.openmoviedb.com/tmdb-images/original/nPXFBAi03eWxUW0MEz9iUm6hwOR.jpg","previewUrl":"https://image.openmoviedb.com/tmdb-images/w500/nPXFBAi03eWxUW0MEz9iUm6hwOR.jpg"}},{"number":7,"name":"Эпизод
        7","enName":"Mini Sengoku Basara 7","airDate":"2010-01-06T00:00:00.000Z","description":"","enDescription":"","still":{"url":"https://image.openmoviedb.com/tmdb-images/original/31D8lmhHmrWgQ9wUypUsuvL3jvJ.jpg","previewUrl":"https://image.openmoviedb.com/tmdb-images/w500/31D8lmhHmrWgQ9wUypUsuvL3jvJ.jpg"}},{"number":8,"name":"Эпизод
        8","enName":"Inland Sea Clash! Spitting Fire at the Great Fort of the Sea・Mt.Fuji!!","airDate":"2010-01-06T00:00:00.000Z","description":"","enDescription":"Maeda
        Toshiie and Matsu visit Chousokabe Motochika, who governs Shikoku. They tell
        Motochika unreasonable demands from Nobunaga. Motochika rejects them and urges
        Maeda to betray Nobunaga. Meanwhile Keiji tries to convince Mouri Motonari
        to join the fight against Nobunaga, and is imprisoned as a result. Motochika
        and Motonari move against each other.","still":{"url":"https://image.openmoviedb.com/tmdb-images/original/yyIK8IpKF6hviYq88GfstaGUJKQ.jpg","previewUrl":"https://image.openmoviedb.com/tmdb-images/w500/yyIK8IpKF6hviYq88GfstaGUJKQ.jpg"}},{"number":9,"name":"Эпизод
        9","enName":"Mini Sengoku Basara Two 1","airDate":"2010-10-06T00:00:00.000Z","description":"","enDescription":"","still":{"url":"https://image.openmoviedb.com/tmdb-images/original/uyRh58GJNEKaAbjO2FeWWJWmree.jpg","previewUrl":"https://image.openmoviedb.com/tmdb-images/w500/uyRh58GJNEKaAbjO2FeWWJWmree.jpg"}},{"number":10,"name":"Эпизод
        10","enName":"Mini Sengoku Basara Two 2","airDate":"2010-11-03T00:00:00.000Z","description":"","enDescription":"","still":{"url":"https://image.openmoviedb.com/tmdb-images/original/9MR7GEs2OB5NVYqZWWZCuGxZMDJ.jpg","previewUrl":"https://image.openmoviedb.com/tmdb-images/w500/9MR7GEs2OB5NVYqZWWZCuGxZMDJ.jpg"}},{"number":11,"name":"Эпизод
        11","enName":"Mini Sengoku Basara Two 3","airDate":"2010-12-01T00:00:00.000Z","description":"","enDescription":"","still":{"url":"https://image.openmoviedb.com/tmdb-images/original/hv6Tn11QrzxKNY163QO3j4tqfW6.jpg","previewUrl":"https://image.openmoviedb.com/tmdb-images/w500/hv6Tn11QrzxKNY163QO3j4tqfW6.jpg"}},{"number":12,"name":"Эпизод
        12","enName":"Mini Sengoku Basara Two 4","airDate":"2011-01-05T00:00:00.000Z","description":"","enDescription":"","still":{"url":"https://image.openmoviedb.com/tmdb-images/original/3SvKcvvei77xDdlMVkmYO3WGWN0.jpg","previewUrl":"https://image.openmoviedb.com/tmdb-images/w500/3SvKcvvei77xDdlMVkmYO3WGWN0.jpg"}},{"number":13,"name":"Эпизод
        13","enName":"Mini Sengoku Basara Two 5","airDate":"2011-02-02T00:00:00.000Z","description":"","enDescription":"","still":{"url":"https://image.openmoviedb.com/tmdb-images/original/oPR4GTpZFlgCRY6dfv4EDGNhoNf.jpg","previewUrl":"https://image.openmoviedb.com/tmdb-images/w500/oPR4GTpZFlgCRY6dfv4EDGNhoNf.jpg"}},{"number":14,"name":"Эпизод
        14","enName":"Mini Sengoku Basara Two 6","airDate":"2011-03-02T00:00:00.000Z","description":"","enDescription":"","still":{"url":"https://image.openmoviedb.com/tmdb-images/original/fc66tWw6ydFJitffmu2MmlE35YS.jpg","previewUrl":"https://image.openmoviedb.com/tmdb-images/w500/fc66tWw6ydFJitffmu2MmlE35YS.jpg"}},{"number":15,"name":"Эпизод
        15","enName":"Mini Sengoku Basara Two 7","airDate":"2011-04-06T00:00:00.000Z","description":"","enDescription":"","still":{"url":"https://image.openmoviedb.com/tmdb-images/original/cxSLvJ4ushEoMtul7OSkhyI1iq7.jpg","previewUrl":"https://image.openmoviedb.com/tmdb-images/w500/cxSLvJ4ushEoMtul7OSkhyI1iq7.jpg"}},{"number":16,"name":"Эпизод
        16","enName":"Dragon and Tiger, Oath of Victory! Souls Racing Towards a Blazing
        Future!!","airDate":"2011-04-06T00:00:00.000Z","description":"","enDescription":"","still":{"url":"https://image.openmoviedb.com/tmdb-images/original/ezqMnFTT5XizbVJ9XfZOn2gLHWH.jpg","previewUrl":"https://image.openmoviedb.com/tmdb-images/w500/ezqMnFTT5XizbVJ9XfZOn2gLHWH.jpg"}}],"source":"tmdb","updatedAt":"2025-04-05T01:09:01.595Z","createdAt":"2025-04-05T01:09:01.595Z","id":"67f082afcef6cd7449d53f0c"},{"movieId":408775,"poster":{"url":"https://image.openmoviedb.com/tmdb-images/original/uZJE7vBJCjnAzF6CK8NotS9dDOM.jpg","previewUrl":"https://image.openmoviedb.com/tmdb-images/w500/uZJE7vBJCjnAzF6CK8NotS9dDOM.jpg"},"number":0,"name":"Спецматериалы","enName":"Specials","episodesCount":19,"airDate":"2002-03-27T00:00:00.000Z","episodes":[{"number":1,"name":"Эпизод
        1","enName":"In a Distant Time 1","airDate":"2002-03-27T00:00:00.000Z","description":"","enDescription":"","still":{"url":null,"previewUrl":null}},{"number":2,"name":"Эпизод
        2","enName":"In a Distant Time 2","airDate":"2003-01-22T00:00:00.000Z","description":"","enDescription":"","still":{"url":null,"previewUrl":null}},{"number":3,"name":"Эпизод
        3","enName":"Shiroki Ryuu no Miko 1","airDate":"2003-03-26T00:00:00.000Z","description":"","enDescription":"","still":{"url":null,"previewUrl":null}},{"number":4,"name":"Эпизод
        4","enName":"Shiroki Ryuu no Miko 2","airDate":"2004-01-28T00:00:00.000Z","description":"","enDescription":"","still":{"url":null,"previewUrl":null}},{"number":5,"name":"Эпизод
        5","enName":"Shiroki Ryuu no Miko 3","airDate":"2005-02-02T00:00:00.000Z","description":"","enDescription":"","still":{"url":null,"previewUrl":null}},{"number":6,"name":"Эпизод
        6","enName":"Alternate Ending - Yorihisa","airDate":"2005-09-23T00:00:00.000Z","description":"","enDescription":"","still":{"url":null,"previewUrl":null}},{"number":7,"name":"Эпизод
        7","enName":"Alternate Ending - Inori","airDate":"2005-09-23T00:00:00.000Z","description":"","enDescription":"","still":{"url":null,"previewUrl":null}},{"number":8,"name":"Эпизод
        8","enName":"Alternate Ending - Tomomasa","airDate":"2005-09-23T00:00:00.000Z","description":"","enDescription":"","still":{"url":null,"previewUrl":null}},{"number":9,"name":"Эпизод
        9","enName":"Alternate Ending - Tenma","airDate":"2005-09-23T00:00:00.000Z","description":"","enDescription":"","still":{"url":null,"previewUrl":null}},{"number":10,"name":"Эпизод
        10","enName":"Alternate Ending - Eisen","airDate":"2005-09-23T00:00:00.000Z","description":"","enDescription":"","still":{"url":null,"previewUrl":null}},{"number":11,"name":"Эпизод
        11","enName":"Alternate Ending - Takamichi","airDate":"2005-09-23T00:00:00.000Z","description":"","enDescription":"","still":{"url":null,"previewUrl":null}},{"number":12,"name":"Эпизод
        12","enName":"Alternate Ending - Shimon","airDate":"2005-09-23T00:00:00.000Z","description":"","enDescription":"","still":{"url":null,"previewUrl":null}},{"number":13,"name":"Эпизод
        13","enName":"Alternate Ending - Yasuaki","airDate":"2005-09-23T00:00:00.000Z","description":"","enDescription":"","still":{"url":null,"previewUrl":null}},{"number":14,"name":"Эпизод
        14","enName":"Destination of the Heart 1","airDate":"2005-12-23T00:00:00.000Z","description":"","enDescription":"","still":{"url":null,"previewUrl":null}},{"number":15,"name":"Эпизод
        15","enName":"Destination of the Heart 2","airDate":"2006-01-27T00:00:00.000Z","description":"","enDescription":"","still":{"url":null,"previewUrl":null}},{"number":16,"name":"Эпизод
        16","enName":"Beyond the Stream of Time Recap","airDate":"2006-07-28T00:00:00.000Z","description":"","enDescription":"","still":{"url":null,"previewUrl":null}},{"number":17,"name":"Эпизод
        17","enName":"Crimson Moon","airDate":"2007-12-28T00:00:00.000Z","description":"","enDescription":"","still":{"url":null,"previewUrl":null}},{"number":18,"name":"Эпизод
        18","enName":"Crimson Moon Special","airDate":"2008-01-02T00:00:00.000Z","description":"","enDescription":"","still":{"url":null,"previewUrl":null}},{"number":19,"name":"Эпизод
        19","enName":"Neverending Destiny","airDate":"2010-01-04T00:00:00.000Z","description":"","enDescription":"","still":{"url":null,"previewUrl":null}}],"source":"tmdb","updatedAt":"2025-04-05T01:08:59.840Z","createdAt":"2025-04-05T01:08:57.951Z","id":"67f082aacef6cd7449d53e4c"},{"movieId":408782,"number":0,"name":"Спецматериалы","enName":"Specials","episodesCount":1,"airDate":"2007-04-21T00:00:00.000Z","episodes":[{"number":1,"name":"Эпизод
        1","enName":"Inukami! The Movie","airDate":"2007-04-21T00:00:00.000Z","description":"","enDescription":"In
        2007, the Punishment of Sexual Perversions Law came into effect. The city
        is surrounded by a squadron wearing protective suits and they begin to arrest
        any who look like perversions. No wonder that Inukami Master Keita and Inukami
        Yoko are wanted for Class A perversions.","still":{"url":null,"previewUrl":null}}],"source":"tmdb","updatedAt":"2025-04-05T01:08:33.837Z","createdAt":"2025-04-05T01:08:32.562Z","id":"67f08291cef6cd7449d539ed"},{"movieId":979244,"number":1,"name":"Сезон
        1","enName":"Season 1","episodesCount":5,"airDate":"2015-05-08T00:00:00.000Z","episodes":[{"number":1,"name":"Эпизод
        1","enName":"Episode 1","airDate":"2015-05-08T00:00:00.000Z","description":"","enDescription":"","still":{"url":null,"previewUrl":null}},{"number":2,"name":"Эпизод
        2","enName":"Episode 2","airDate":"2015-05-15T00:00:00.000Z","description":"","enDescription":"","still":{"url":null,"previewUrl":null}},{"number":3,"name":"Эпизод
        3","enName":"Episode 3","airDate":"2015-05-22T00:00:00.000Z","description":"","enDescription":"","still":{"url":null,"previewUrl":null}},{"number":4,"name":"Эпизод
        4","enName":"Episode 4","airDate":"2015-05-29T00:00:00.000Z","description":"","enDescription":"","still":{"url":null,"previewUrl":null}},{"number":5,"name":"Эпизод
        5","enName":"Episode 5","airDate":"2015-06-05T00:00:00.000Z","description":"","enDescription":"","still":{"url":null,"previewUrl":null}}],"source":"tmdb","updatedAt":"2025-04-05T01:07:55.718Z","createdAt":"2025-04-05T01:07:55.718Z","id":"67f0826bcef6cd7449d53361"},{"movieId":1333958,"number":0,"name":"Спецматериалы","enName":"Specials","episodesCount":1,"airDate":"2019-11-24T00:00:00.000Z","episodes":[{"number":1,"name":"Эпизод
        1","enName":"Make Ready for Christmas","airDate":"2019-11-24T00:00:00.000Z","description":"","enDescription":"As
        Randall prepares for the Advent season, Maggie decides to level up the annual
        Christmas Sing-Along and turn it into a full-blown Christmas Eve pageant spectacular.
        Meanwhile, Doug discovers a thief hiding out in the workshop and wrestles
        with whether he should let it stay and if he should keep it a secret. When
        the workshop''s new neighbor, Scott Hamilton, announces he''s building the
        biggest Christmas light display the town has ever seen, Maggie''s finds herself
        called on to sacrifice more and more of her own dreams for the pageant to
        help her friends. With so much activity, emergency, and a dizzying carousel
        of friends stopping by, will Maggie erupt with frustration or embrace the
        invitation of Christmas?","still":{"url":null,"previewUrl":null}}],"source":"tmdb","updatedAt":"2025-04-05T01:06:55.079Z","createdAt":"2025-04-05T01:06:54.469Z","id":"67f0822fcef6cd7449d52aa0"},{"movieId":688664,"number":0,"name":"Спецматериалы","enName":"Specials","episodesCount":3,"airDate":"2012-12-17T00:00:00.000Z","episodes":[{"number":1,"name":"Эпизод
        1","enName":"Operation Chocolate / Operation Marshmallow / Electric Bird /
        Nyanmaru Theater","airDate":"2012-12-17T00:00:00.000Z","description":"","enDescription":"","still":{"url":null,"previewUrl":null}},{"number":2,"name":"Эпизод
        2","enName":"Lost Summer / Under the Sakura / Sequel Nyanmaru Theater / Heike
        Masaomi: Erotic Novel Theater","airDate":"2013-02-15T00:00:00.000Z","description":"","enDescription":"","still":{"url":null,"previewUrl":null}},{"number":3,"name":"Эпизод
        3","enName":"Superpowers / A Fierce Battle! / A Winter Story at the Shibuya
        Estate","airDate":"2013-04-17T00:00:00.000Z","description":"","enDescription":"","still":{"url":null,"previewUrl":null}}],"source":"tmdb","updatedAt":"2025-04-05T01:05:39.608Z","createdAt":"2025-04-05T01:05:37.491Z","id":"67f081e2cef6cd7449d51dc5"},{"movieId":1045797,"number":0,"name":"Спецматериалы","enName":"Specials","episodesCount":6,"airDate":"2007-08-22T00:00:00.000Z","episodes":[{"number":1,"name":"Эпизод
        1","enName":"Inferno I: The River of Wailing","airDate":"2007-08-22T00:00:00.000Z","description":"","enDescription":"","still":{"url":"https://image.openmoviedb.com/tmdb-images/original/m3xLg2iTop799EKU7Is79KaGDEk.jpg","previewUrl":"https://image.openmoviedb.com/tmdb-images/w500/m3xLg2iTop799EKU7Is79KaGDEk.jpg"}},{"number":2,"name":"Эпизод
        2","enName":"Inferno II: The City of Dis","description":"","enDescription":"","still":{"url":"https://image.openmoviedb.com/tmdb-images/original/95Mll65JEUpBZJ46vfFWK1AdeMz.jpg","previewUrl":"https://image.openmoviedb.com/tmdb-images/w500/95Mll65JEUpBZJ46vfFWK1AdeMz.jpg"}},{"number":3,"name":"Эпизод
        3","enName":"Inferno III: Purgatory Hill","description":"","enDescription":"","still":{"url":"https://image.openmoviedb.com/tmdb-images/original/szfB3Y5DUTwtTaZp4z8Qyrx5mgS.jpg","previewUrl":"https://image.openmoviedb.com/tmdb-images/w500/szfB3Y5DUTwtTaZp4z8Qyrx5mgS.jpg"}},{"number":4,"name":"Эпизод
        4","enName":"Inferno IV: Heaven on Earth","description":"","enDescription":"","still":{"url":"https://image.openmoviedb.com/tmdb-images/original/fmGUvVgZ6XCmMcki4Zg6Fx7mJ31.jpg","previewUrl":"https://image.openmoviedb.com/tmdb-images/w500/fmGUvVgZ6XCmMcki4Zg6Fx7mJ31.jpg"}},{"number":5,"name":"Эпизод
        5","enName":"Inferno V: Myth","description":"","enDescription":"","still":{"url":"https://image.openmoviedb.com/tmdb-images/original/9xUEJXgd7OEckcxFY4yUC47jNKE.jpg","previewUrl":"https://image.openmoviedb.com/tmdb-images/w500/9xUEJXgd7OEckcxFY4yUC47jNKE.jpg"}},{"number":6,"name":"Эпизод
        6","enName":"Episode 6","description":"","enDescription":"","still":{"url":null,"previewUrl":null}}],"source":"tmdb","updatedAt":"2025-04-05T01:05:29.334Z","createdAt":"2025-04-05T01:05:28.408Z","id":"67f081d9cef6cd7449d51c58"},{"movieId":230357,"number":0,"name":"Спецматериалы","enName":"Specials","episodesCount":2,"airDate":"1993-01-27T00:00:00.000Z","episodes":[{"number":1,"name":"Эпизод
        1","enName":"Kung Fu: A Legend Reborn","airDate":"1993-01-27T00:00:00.000Z","description":"","enDescription":"","still":{"url":null,"previewUrl":null}},{"number":2,"name":"Эпизод
        2","enName":"Bloopers","description":"","enDescription":"","still":{"url":null,"previewUrl":null}}],"source":"tmdb","updatedAt":"2025-04-05T01:04:10.921Z","createdAt":"2025-04-05T01:04:10.921Z","id":"67f0818dcef6cd7449d50ff5"}],"total":179588,"limit":10,"page":1,"pages":17959}'
  recorded_at: Sun, 06 Apr 2025 19:27:18 GMT
recorded_with: VCR 6.3.1
